@startuml
cpu -> memory_map: load_rom
memory_map -> rom_loader: load_rom
rom_loader -> rom_loader: Create MMC object
rom_loader -> memory_map: MMC Object
memory_map -> ppu: set_mmc_interface(mmc_instance)
ppu -> memory_map
memory_map -> memory_map: map_mmc
memory_map -> cpu: return memory_map instance

@enduml